[
  {
    "deviceId": 1,
    "name": "Samsung S24F350F",
    "origin": "China",
    "price": 4099,
    "type": {
      "deviceGroup": {
        "id": 1,
        "name": "Monitor"
      },
      "peripheral": true,
      "energyConsumption": 25,
      "cooler": false,
      "ports": [
        {
          "name": "VGA"
        },
        {
          "name": "HDMI"
        }
      ]
    },
    "critical": true
  },
  {
    "deviceId": 2,
    "name": "Dell P2417H",
    "origin": "China",
    "price": 6369,
    "type": {
      "deviceGroup": {
        "id": 1,
        "name": "Monitor"
      },
      "peripheral": true,
      "energyConsumption": 39,
      "cooler": false,
      "ports": [
        {
          "name": "VGA"
        },
        {
          "name": "HDMI"
        },
        {
          "name": "DisplayPort"
        }
      ]
    },
    "critical": true
  },
  {
    "deviceId": 3,
    "name": "GeForce GTX1060",
    "origin": "USA",
    "price": 8699,
    "type": {
      "deviceGroup": {
        "id": 2,
        "name": "Videocard"
      },
      "peripheral": true,
      "energyConsumption": 400,
      "cooler": true,
      "ports": [
        {
          "name": "DVI"
        },
        {
          "name": "HDMI"
        },
        {
          "name": "DisplayPort"
        }
      ]
    },
    "critical": true
  },
  {
    "deviceId": 0,
    "name": "GeForce GTX1050",
    "origin": "USA",
    "price": 6599,
    "type": {
      "deviceGroup": {
        "id": 2,
        "name": "Videocard"
      },
      "peripheral": true,
      "energyConsumption": 330,
      "cooler": true,
      "ports": [
        {
          "name": "DVI"
        },
        {
          "name": "HDMI"
        },
        {
          "name": "DisplayPort"
        }
      ]
    },
    "critical": true
  }
]