{
  "$schema": "http://json-schema.org/draft-04/schema#",
  "title": "devices",
  "description": "Devices list",
  "type": "array",
  "items": [
    {
      "type": "object",
      "properties": {
        "deviceId": {
          "type": "integer",
          "minimum": 0
        },
        "name": {
          "type": "string"
        },
        "origin": {
          "type": "string"
        },
        "price": {
          "type": "integer",
          "minimum": 0
        },
        "type": {
          "type": "object",
          "properties": {
            "deviceGroup": {
              "type": "object",
              "properties": {
                "id": {
                  "type": "integer",
                  "minimum": 0
                },
                "name": {
                  "type": "string"
                }
              },
              "required": [
                "id",
                "name"
              ]
            },
            "peripheral": {
              "type": "boolean"
            },
            "energyConsumption": {
              "type": "integer"
            },
            "cooler": {
              "type": "boolean"
            },
            "ports": {
              "type": "array",
              "items": [
                {
                  "type": "object",
                  "properties": {
                    "name": {
                      "type": "string"
                    }
                  },
                  "required": [
                    "name"
                  ]
                },
                {
                  "type": "object",
                  "properties": {
                    "name": {
                      "type": "string"
                    }
                  },
                  "required": [
                    "name"
                  ]
                }
              ]
            }
          },
          "required": [
            "deviceGroup",
            "peripheral",
            "energyConsumption",
            "cooler",
            "ports"
          ]
        },
        "critical": {
          "type": "boolean"
        }
      },
      "required": [
        "deviceId",
        "name",
        "origin",
        "price",
        "type",
        "critical"
      ]
    }
  ]
}